ISSS608-VAA-Project - Investigations
…
Next, we ensure there are no duplicated rows

Show the code

links_df[duplicated(links_df),]

# A tibble: 790 × 7
   type               time   dwell source                target date  ping_date
   <chr>              <dttm> <dbl> <chr>                 <chr>  <chr> <date>   
 1 Event.HarborReport NA        NA wavewranglerc2d       City … 2035… NA       
 2 Event.HarborReport NA        NA wavewranglerc2d       City … 2035… NA       
 3 Event.HarborReport NA        NA wavewranglerc2d       City … 2035… NA       
 4 Event.HarborReport NA        NA wavewranglerc2d       City … 2035… NA       
 5 Event.HarborReport NA        NA wavewranglerc2d       City … 2035… NA       
 6 Event.HarborReport NA        NA wavewranglerc2d       City … 2035… NA       
 7 Event.HarborReport NA        NA yellowfintunataker08b City … 2035… NA       
 8 Event.HarborReport NA        NA webigailba7           City … 2035… NA       
 9 Event.HarborReport NA        NA webigailba7           City … 2035… NA       
10 Event.HarborReport NA        NA webigailba7           City … 2035… NA       
# ℹ 780 more rows
…
